Haiku,node name
"""amount of bitcoin"",",line_A001
"""path of the master"",",line_A002
"""in the thunderstorm"",",line_A003
"""public opinion"",",line_A004
"""slight cause for regret"",",line_A005
"""points of view diverge"",",line_A006
"""from thy unbelief"",",line_A007
"""with understanding"",",line_A008
"""business transactions"",",line_A009
"""free of blind impulse"",",line_A010
"""benevolent will"",",line_A011
"""for organic meat"",",line_A012
"""other large mammals"",",line_A013
"""peace and good fortune"",",line_A014
"""outer adornment"",",line_A015
"""gods of the future"",",line_A016
"""consciousness experts"",",line_A017
"""over the water"",",line_A018
"""single source of truth"",",line_A019
"""above and below"",",line_A020
"""creative powers"",",line_A021
"""truth and loyalty"",",line_A022
"""disgrace and danger"",",line_A023
"""bondage and yearning"",",line_A024
"""breed of animal"",",line_A025
"""conscious of being"",",line_A026
"""patterns or symbols"",",line_A027
"""by tranquility"",",line_A028
"""process called plumping"",",line_A029
"""subtle ether flows"",",line_A030
"""expression in word"",",line_A031
"""polyhedral dice"",",line_A032
"""in the physical"",",line_A033
"""mountainous terrain"",",line_A034
"""buying and selling"",",line_A035
"""crossroads of wonder"",",line_A036
"""public confidence"",",line_A037
"""higher consciousness"",",line_A038
"""oldest dog alive"",",line_A039
"""prices determined"",",line_A040
"""to a dead wallet"",",line_A041
"""events will occur"",",line_A042
"""power of the state"",",line_A043
"""true wealth of nature"",",line_A044
"""in their inmost hearts"",",line_A045
"""equation predicts"",",line_A046
"""free of misfortune"",",line_A047
"""humans have hunted"",",line_A048
"""with true happiness"",",line_A049
"""masters of brightness"",",line_A050
"""in the beginning"",",line_A051
"""power to rise comes"",",line_A052
"""opposite the sun"",",line_A053
"""against all that is"",",line_A054
"""strength and steadfastness"",",line_A055
"""on a cosmic scale"",",line_A056
"""much mammal muscle"",",line_A057
"""picture of a bird"",",line_A058
"""as a currency"",",line_A059
"""optimum level"",",line_A060
"""only by effort"",",line_A061
"""in tangled up knots"",",line_A062
"""time and place demand"",",line_A063
"""striking to the eye"",",line_A064
"""sweet waters to flow"",",line_A065
"""so painfully missed"",",line_A066
"""path of attainment"",",line_A067
"""in nature we see"",",line_A068
"""tendencies appear"",",line_A069
"""with passionate speed"",",line_A070
"""obey the command"",",line_A071
"""on all coat colors"",",line_A072
"""similar to cats"",",line_A073
"""on the underjaw"",",line_A074
"""new dog is playing"",",line_A075
"""obedience class"",",line_A076
"""purpose of the guard"",",line_A077
"""breed with distinction"",",line_A078
"""in the playful mode"",",line_A079
"""cheese in rubber toys"",",line_A080
"""breed that is adored"",",line_A081
"""when she is playing"",",line_A082
"""breeding just started"",",line_A083
"""sides of the muzzle"",",line_A084
"""leash is loose again"",",line_A085
"""in unfenced outdoors"",",line_A086
"""food toy ideas"",",line_A087
"""extra exercise"",",line_A088
"""dislike of mailmen"",",line_A089
"""fun for any breed"",",line_A090
"""reasons for barking"",",line_A091
"""for your new shiba"",",line_A092
"""of the many dogs"",",line_A093
"""while pretty clueless"",",line_A094
"""with more leash training"",",line_A095
"""wary of strangers"",",line_A096
"""male puppy running"",",line_A097
"""friendly dogs can help"",",line_A098
"""calm and assertive"",",line_A099
"""such fluff and bluster"",",line_A100
"""with proper training"",",line_A101
"""puppies are easy"",",line_A102
"""just sneezing so much"",",line_A103
"""with paws and muzzle"",",line_A104
"""spirited boldness"",",line_A105
"""paw across her snout"",",line_A106
"""inner energy"",",line_A107
"""such a pupper wow"",",line_A108
"""new ways to challenge"",",line_A109
"""off to some mischief"",",line_A110
"""while licking your face""",line_A111
"""confidence through steadfastness"",",line_B001
"""deliverance is achieved"",",line_B002
"""deliciously alluring"",",line_B003
"""readiness to teach mankind"",",line_B004
"""of a great revolution"",",line_B005
"""approachable and modest"",",line_B006
"""ancient uru dragon blood"",",line_B007
"""personal embodiment"",",line_B008
"""with hormones that synchronize"",",line_B009
"""inner power is combined"",",line_B010
"""access to the mystical"",",line_B011
"""conscious evolving of truth"",",line_B012
"""for gambling activities"",",line_B013
"""natural fermentation"",",line_B014
"""transaction is broadcasted"",",line_B015
"""resolutely allying"",",line_B016
"""thus victory is achieved"",",line_B017
"""how dangerously they pile"",",line_B018
"""moments of great clarity"",",line_B019
"""adversity only bends"",",line_B020
"""with infinity's beauty"",",line_B021
"""new power has arisen"",",line_B022
"""fat is mainly calories"",",line_B023
"""of these riveting questions"",",line_B024
"""related to the ego"",",line_B025
"""of unselfish modesty"",",line_B026
"""decentralizing nature"",",line_B027
"""workings of the universe"",",line_B028
"""at the decisive moment"",",line_B029
"""difficult and dangerous"",",line_B030
"""widespread usage of blockchain"",",line_B031
"""as quickly as possible"",",line_B032
"""goal to capture opponent"",",line_B033
"""double shib experiment"",",line_B034
"""deluded exuberance"",",line_B035
"""resources include tokens"",",line_B036
"""nonetheless he remains true"",",line_B037
"""only in the illusions"",",line_B038
"""invariably aroused"",",line_B039
"""receptive to impressions"",",line_B040
"""at liberty to depart"",",line_B041
"""down the spiraling pinecone"",",line_B042
"""of the play experience"",",line_B043
"""amazing early success"",",line_B044
"""vigorously maintaining"",",line_B045
"""gamble to relieve feelings"",",line_B046
"""with a contrary meaning"",",line_B047
"""such instinctive certitude"",",line_B048
"""irreverent attitude"",",line_B049
"""sole purpose of alchemy"",",line_B050
"""ever more powerfully"",",line_B051
"""virtue and correct conduct"",",line_B052
"""only the perfected state"",",line_B053
"""mastery of the future"",",line_B054
"""complexity and learning"",",line_B055
"""number one companion dog"",",line_B056
"""statistically speaking"",",line_B057
"""vision of complexity"",",line_B058
"""group identity feeling"",",line_B059
"""from an inner delusion"",",line_B060
"""for much sanctification"",",line_B061
"""in graceful and controlled ways"",",line_B062
"""such inner authority"",",line_B063
"""diffusions of consciousness"",",line_B064
"""advanced insights expected"",",line_B065
"""such unobstructed success"",",line_B066
"""as hexagrams indicate"",",line_B067
"""protection of people wow"",",line_B068
"""awaken generations"",",line_B069
"""much creative intention"",",line_B070
"""as every real shaman"",",line_B071
"""realm of the invisible"",",line_B072
"""critical mass of users"",",line_B073
"""naturally flames upward"",",line_B074
"""supernatural powers"",",line_B075
"""such profound attention wow"",",line_B076
"""superior shib controls"",",line_B077
"""logical consequences"",",line_B078
"""merely arouses growling"",",line_B079
"""creative and flexible"",",line_B080
"""undercoat that can protect"",",line_B081
"""excitement during the day"",",line_B082
"""before doing the command"",",line_B083
"""important but difficult"",",line_B084
"""capable of learning things"",",line_B085
"""exactly like my shiba"",",line_B086
"""fantastic ability"",",line_B087
"""great responsibility"",",line_B088
"""underjaw and upper throat"",",line_B089
"""dogs assert their dominance"",",line_B090
"""of absolute innocence"",",line_B091
"""lucky shiba loves the toy"",",line_B092
"""comfortable and happy"",",line_B093
"""little excentricities"",",line_B094
"""wonderful little shiba"",",line_B095
"""escapes to go play instead"",",line_B096
"""daily brushing can temper"",",line_B097
"""dominant one to protect"",",line_B098
"""innate personality"",",line_B099
"""undercoat is rather dense"",",line_B100
"""sense your inner energy"",",line_B101
"""shiba is adorable"",",line_B102
"""muscular and hearty dog"",",line_B103
"""prowl around the neighborhood"",",line_B104
"""shiba with perfect manners"",",line_B105
"""shiba personality"",",line_B106
"""great feats of agility"",",line_B107
"""of the most favored human"",",line_B108
"""obedient affection"",",line_B109
"""territoriality"",",line_B110
"""picky about the kibble""",line_B111
"""unselfish and good"",",line_C001
"""when they awaken"",",line_C002
"""to the pinnacle"",",line_C003
"""strength gives the meaning"",",line_C004
"""danger approaches"",",line_C005
"""memory of dogs"",",line_C006
"""water explosion"",",line_C007
"""with inspiration"",",line_C008
"""light of loyalty"",",line_C009
"""when luck is ordained"",",line_C010
"""of japanese dogs"",",line_C011
"""whole nother level"",",line_C012
"""in contemplation"",",line_C013
"""height of the mountain"",",line_C014
"""of fractality"",",line_C015
"""of all mystery"",",line_C016
"""rather confounding"",",line_C017
"""too strongly expressed"",",line_C018
"""master of the house"",",line_C019
"""from shib's beginning"",",line_C020
"""easy to follow"",",line_C021
"""dangerous abyss"",",line_C022
"""so too sunrise comes"",",line_C023
"""together with fire"",",line_C024
"""by gambling online"",",line_C025
"""man fixes his mind"",",line_C026
"""deep hidden wisdom"",",line_C027
"""tools of intention"",",line_C028
"""hand upon thy head"",",line_C029
"""always be guided"",",line_C030
"""through spaces unknown"",",line_C031
"""so richly endowed"",",line_C032
"""goal that can unite"",",line_C033
"""sleepily at dawn"",",line_C034
"""creative insight"",",line_C035
"""free from the darkness"",",line_C036
"""thunder in motion"",",line_C037
"""with perseverance"",",line_C038
"""source of creation"",",line_C039
"""wow darknet markets"",",line_C040
"""never compromise"",",line_C041
"""passion still lurking"",",line_C042
"""of all that exists"",",line_C043
"""in realms of brightness"",",line_C044
"""on a roulette wheel"",",line_C045
"""thus are the cycles"",",line_C046
"""friendship of a prince"",",line_C047
"""victory is won"",",line_C048
"""deep understanding"",",line_C049
"""credit card needed"",",line_C050
"""such shaman healing"",",line_C051
"""all through the ages"",",line_C052
"""quantum summoning"",",line_C053
"""evidence suggests"",",line_C054
"""thine ultimate end"",",line_C055
"""dawning of the new"",",line_C056
"""such large animals"",",line_C057
"""of coming events"",",line_C058
"""after seven days"",",line_C059
"""after you installed"",",line_C060
"""form to the formless"",",line_C061
"""here on this planet"",",line_C062
"""outstanding greatness"",",line_C063
"""foundations of life"",",line_C064
"""b4 dog and man"",",line_C065
"""even more perfect"",",line_C066
"""none will understand"",",line_C067
"""path to much wise wow"",",line_C068
"""sentient creatures"",",line_C069
"""essence of wisdom"",",line_C070
"""plasma explosion"",",line_C071
"""towards victory"",",line_C072
"""industrial scale"",",line_C073
"""very moar knowledge"",",line_C074
"""power is secret"",",line_C075
"""chasing the kittens"",",line_C076
"""training is complete"",",line_C077
"""snarls but no biting"",",line_C078
"""interactive toys"",",line_C079
"""bred to be perfect"",",line_C080
"""little male shiba"",",line_C081
"""biting behavior"",",line_C082
"""sudden aggression"",",line_C083
"""owners never shave"",",line_C084
"""pretty awesome breed"",",line_C085
"""too much to handle"",",line_C086
"""before he gets toys"",",line_C087
"""natural hunters"",",line_C088
"""clever animals"",",line_C089
"""then shiba will sneeze"",",line_C090
"""with good pedigree"",",line_C091
"""high protein kibble"",",line_C092
"""loving and friendly"",",line_C093
"""collar is a must"",",line_C094
"""lots of attention"",",line_C095
"""play is poetry"",",line_C096
"""in contemplation"",",line_C097
"""often use his brain"",",line_C098
"""dog toys and puzzles"",",line_C099
"""fluffy appearance"",",line_C100
"""always has to sit"",",line_C101
"""very strange habit"",",line_C102
"""human affection"",",line_C103
"""like a crazy dog"",",line_C104
"""loving as he is"",",line_C105
"""strong reputation"",",line_C106
"""kisses and snuggles"",",line_C107
"""as the shiba screams"",",line_C108
"""hyper all the time"",",line_C109
"""when they are hungry"",",line_C110
"""established breeder""",line_C111