trait_type,value,maped
Speed,1,speed_1
Speed,2,speed_2
Speed,3,speed_3
Speed,4,speed_4
Speed,5,speed_5
Volume,1,volume_1
Volume,2,volume_2
Volume,3,volume_3
Volume,4,volume_4
Volume,5,volume_5
Power,1,power_1
Power,2,power_2
Power,3,power_3
Power,4,power_4
Power,5,power_5
Power,6,power_6
Power,7,power_7
Thermometer,1,thermometer_1
Thermometer,2,thermometer_2
Thermometer,3,thermometer_3
Thermometer,4,thermometer_4
Thermometer,5,thermometer_5
Thermometer,6,thermometer_6
Thermometer,7,thermometer_7