{
  "name": "Shiba Inu Voter ID 1",
  "description": "This Voter ID entitles the holder to vote on issues pertaining to the SHIB token and the crypto space at large",
  "external_link": "https://influencedotvote.eth.link",
  "background_color": "ffffff",
  "image_url": "ipfs://",
  "animation_url": "ipfs://",
  "image": "ipfs://",
  "owner": "0xa874Fa6ccDcCB57d9397247e088575C4EF34EC66",
  "attributes": [
    {
      "trait_type": "Haiku",
      "value": "on a cosmic scale\\nsole purpose of alchemy\\nfree from the darkness"
    },
    { "trait_type": "Token ID", "value": 1 },
    { "trait_type": "Coin 1", "value": "Fist" },
    { "trait_type": "Coin 2", "value": "Fish" },
    { "trait_type": "Coin 3", "value": "Airplane" },
    { "trait_type": "Coin 4", "value": "Knot" },
    { "trait_type": "Coin 5", "value": "Swords" },
    { "trait_type": "Coin 6", "value": "Fish" },
    { "trait_type": "Background", "value": "Saphire" },
    { "trait_type": "Cartridge", "value": "Black Plastic" },
    { "trait_type": "Speed", "value": "Speed 2" },
    { "trait_type": "Volume", "value": "Volume 4" },
    { "trait_type": "Thermometer", "value": "Thermometer 1" },
    { "trait_type": "Power", "value": "Power 2" },
    { "trait_type": "Golden", "value": "False" },
    { "trait_type": "Costume", "value": "Shiba" }
  ]
}
