[
  { "path": "ant/ant.gltf", "name": "Ant", "visible": true },
  { "path": "ant/ant.gltf", "name": "Ant", "visible": true },
  { "path": "indoorflower/scene.gltf", "name": "Flower", "visible": false },
  { "path": "nissan/nissan.gltf", "name": "Car", "visible": false },
  {
    "path": "shibaku/Shiba Dogtag Master  003  .gltf",
    "name": "Shiba",
    "visible": true
  }
]
